<?xml version="1.0" standalone="no"?>
<!DOCTYPE svg PUBLIC "-//W3C//DTD SVG 20010904//EN"
 "http://www.w3.org/TR/2001/REC-SVG-20010904/DTD/svg10.dtd">
<svg version="1.0" xmlns="http://www.w3.org/2000/svg"
 width="1025.000000pt" height="1025.000000pt" viewBox="0 0 1025.000000 1025.000000"
 preserveAspectRatio="xMidYMid meet">
<metadata>
Created by potrace 1.11, written by Peter Selinger 2001-2013
</metadata>
<g transform="translate(0.000000,1025.000000) scale(0.100000,-0.100000)"
fill="#000000" stroke="none">
<path d="M4888 10245 c-2 -2 -56 -6 -120 -9 -65 -4 -128 -9 -140 -11 -13 -2
-54 -7 -93 -11 -38 -4 -72 -8 -75 -9 -3 0 -32 -4 -65 -8 -33 -5 -82 -12 -110
-17 -27 -5 -63 -12 -80 -15 -26 -4 -78 -14 -162 -31 -13 -2 -94 -22 -180 -45
-87 -22 -165 -41 -173 -43 -52 -13 -338 -112 -460 -160 -178 -70 -544 -250
-700 -343 -256 -153 -491 -321 -720 -512 -233 -194 -578 -559 -759 -801 -31
-41 -61 -80 -67 -87 -25 -26 -231 -343 -291 -447 -79 -137 -293 -567 -293
-589 0 -4 -9 -26 -20 -50 -77 -166 -224 -648 -265 -865 -2 -13 -6 -31 -9 -40
-5 -18 -10 -42 -23 -121 -4 -25 -8 -48 -8 -51 -1 -3 -5 -30 -9 -60 -5 -30 -10
-62 -11 -71 -2 -9 -8 -61 -14 -115 -6 -55 -14 -117 -16 -139 -25 -191 -24
-739 0 -945 2 -19 7 -62 10 -95 3 -33 8 -71 10 -85 3 -14 7 -45 9 -70 3 -25 8
-56 11 -70 2 -13 7 -40 10 -60 6 -38 7 -43 31 -165 9 -44 20 -100 25 -125 9
-45 86 -331 96 -360 4 -8 7 -19 9 -25 5 -19 83 -241 107 -305 137 -363 358
-777 590 -1105 67 -96 209 -283 259 -340 185 -219 370 -405 598 -605 295 -260
713 -534 1085 -714 66 -31 127 -61 136 -66 9 -5 56 -25 105 -44 49 -20 98 -41
109 -46 19 -9 110 -43 236 -88 152 -55 544 -160 664 -177 22 -3 46 -8 54 -11
8 -2 30 -7 50 -10 20 -3 61 -9 91 -14 30 -5 78 -12 105 -15 28 -3 57 -8 65
-10 8 -2 49 -7 90 -10 41 -4 86 -8 100 -10 148 -22 715 -23 900 -1 19 3 62 7
95 11 57 6 296 39 360 50 28 5 43 8 100 19 11 3 43 10 70 16 28 6 61 14 75 16
14 3 68 16 120 30 615 161 1136 402 1670 771 106 74 321 242 419 328 277 244
581 573 756 819 11 15 34 47 51 70 155 206 385 609 507 886 46 107 117 277
121 295 2 6 6 17 9 25 32 73 153 477 173 575 2 11 15 70 28 130 14 61 27 124
29 140 3 17 8 46 11 65 13 78 17 100 30 215 32 261 40 393 39 645 0 174 -9
425 -18 469 -1 9 -6 48 -10 88 -9 101 -16 152 -35 263 -5 30 -12 73 -16 95
-10 66 -71 338 -94 417 -170 597 -379 1051 -706 1535 -56 84 -107 158 -113
165 -11 13 -40 50 -91 118 -14 18 -30 38 -35 44 -6 6 -17 20 -25 32 -64 91
-404 450 -555 584 -630 560 -1371 954 -2170 1153 -77 19 -156 38 -176 41 -20
3 -42 8 -50 10 -16 6 -32 9 -194 35 -150 25 -220 34 -355 46 -30 3 -80 8 -110
11 -53 6 -597 14 -602 9z"/>
</g>
</svg>
